individual	tissue	sample	rpi	target
Lp341	gills	p3_1_RE8	1	RE8
Lp341	gills	p3_2_RE8	2	RE8
Lp341	gills	p3_3_RE8	3	RE8
Lp341	gills	p3_4_RE8	4	RE8
Lp341	gills	p3_5_RE13	5	RE13
Lp341	gills	p3_6_RE13	6	RE13
Lp341	gills	p3_7_RE13	7	RE13
Lp341	gills	p3_8_RE13	8	RE13
Lp341	gills	p4_1_RE8	17	RE8
Lp341	gills	p4_2_RE8	18	RE8
Lp341	gills	p4_3_RE8	19	RE8
Lp341	gills	p4_4_RE8	20	RE8
Lp341	gills	p4_5_RE13	21	RE13
Lp341	gills	p4_6_RE13	22	RE13
Lp341	gills	p4_7_RE13	23	RE13
Lp341	gills	p4_8_RE13	24	RE13
Lp341	gills	p3_9_VLRA	9	VLRA
Lp341	gills	p3_10_VLRA	10	VLRA
Lp341	gills	p3_11_VLRA	11	VLRA
Lp341	gills	p3_12_VLRA	12	VLRA
Lp341	gills	p4_13_VLRA	13	VLRA
Lp341	gills	p4_14_VLRA	14	VLRA
Lp341	gills	p4_15_VLRA	15	VLRA
Lp341	gills	p4_16_VLRA	16	VLRA
Lp341	gills	p3_9_VLRB	9	VLRB
Lp341	gills	p3_10_VLRB	10	VLRB
Lp341	gills	p3_11_VLRB	11	VLRB
Lp341	gills	p3_12_VLRB	12	VLRB
Lp341	gills	p4_13_VLRB	13	VLRB
Lp341	gills	p4_14_VLRB	14	VLRB
Lp341	gills	p4_15_VLRB	15	VLRB
Lp341	gills	p4_16_VLRB	16	VLRB
Lp341	gills	p3_9_VLRC	9	VLRC
Lp341	gills	p3_10_VLRC	10	VLRC
Lp341	gills	p3_11_VLRC	11	VLRC
Lp341	gills	p3_12_VLRC	12	VLRC
Lp341	gills	p4_13_VLRC	13	VLRC
Lp341	gills	p4_14_VLRC	14	VLRC
Lp341	gills	p4_15_VLRC	15	VLRC
Lp341	gills	p4_16_VLRC	16	VLRC